{
  "swagger": "2.0",
  "info": {
    "description": "API documentation for chat-bot corezoid",
    "version": "1.0.5",
    "title": "Chat-bot corezoid",
    "termsOfService": "http://swagger.io/terms/",
    "contact": {
      "email": "artemstrigkov@gmail.com"
    },
    "license": {
      "name": "Apache 2.0",
      "url": "http://localhost:3000"
    }
  },
  "host": "localhost:3000",
  "basePath": "/api/v1",
  "tags": [
    {
      "name": "CRUD TODO",
      "description": "Todo CRUD",
      "externalDocs": {
        "description": "Todo CRUD",
        "url": "http://swagger.io"
      }
    }
  ],
  "schemes": [
    "http"
  ],
  "paths": {
    "/todo": {
      "post": {
        "tags": [
          "CRUD TODO"
        ],
        "summary": "Create todo",
        "description": "Create todo",
        "operationId": "createTodo",
        "consumes": [
          "application/json"
        ],
        "produces": [
          "application/json",
          "application/xml"
        ],
        "parameters": [
          {
            "in": "body",
            "name": "body",
            "description": "Created user object",
            "required": true,
            "schema": {
              "$ref": "#/definitions/Todo"
            }
          }
        ],
        "responses": {
          "200": {
            "description": "successful operation"
          },
          "400": {
            "description": "Invalid username supplied"
          },
          "404": {
            "description": "User not found"
          }
        }
      },
      "get": {
        "tags": [
          "CRUD TODO"
        ],
        "summary": "todo",
        "description": "",
        "produces": [
          "application/json",
          "application/xml"
        ],
        "parameters": [
          {
            "name": "id",
            "in": "query",
            "description": "5f47c8b0dbc303b00d551ebc",
            "required": false,
            "type": "string"
          },
          {
            "name": "listId",
            "in": "query",
            "description": "5f481deed22e50445b323590",
            "required": false,
            "type": "string"
          }
        ],
        "responses": {
          "200": {
            "description": "successful operation"
          },
          "400": {
            "description": "Invalid username supplied"
          },
          "404": {
            "description": "User not found"
          }
        }
      },
      "patch": {
        "tags": [
          "CRUD TODO"
        ],
        "summary": "Updated todo",
        "description": "Updated todo",
        "operationId": "updateTodo",
        "consumes": [
          "application/json"
        ],
        "produces": [
          "application/json",
          "application/xml"
        ],
        "parameters": [
          {
            "in": "body",
            "name": "body",
            "description": "Updated todo object",
            "required": true,
            "schema": {
              "$ref": "#/definitions/TodoUpdate"
            }
          }
        ],
        "responses": {
          "200": {
            "description": "successful operation"
          },
          "400": {
            "description": "Invalid username supplied"
          },
          "404": {
            "description": "User not found"
          }
        }
      },
      "delete": {
        "tags": [
          "CRUD TODO"
        ],
        "summary": "Delete user",
        "description": "Delete user",
        "operationId": "deleteUser",
        "produces": [
          "application/json",
          "application/xml"
        ],
        "parameters": [
          {
            "in": "body",
            "name": "body",
            "description": "Delete user object",
            "required": true,
            "schema": {
              "$ref": "#/definitions/Id"
            }
          }
        ],
        "responses": {
          "200": {
            "description": "successful operation"
          },
          "400": {
            "description": "Invalid username supplied"
          },
          "404": {
            "description": "User not found"
          }
        }
      }
    },
    "/list": {
      "post": {
        "tags": [
          "CRUD LIST"
        ],
        "summary": "Create list",
        "description": "Create list",
        "operationId": "createList",
        "consumes": [
          "application/json"
        ],
        "produces": [
          "application/json",
          "application/xml"
        ],
        "parameters": [
          {
            "in": "body",
            "name": "body",
            "description": "Created list object",
            "required": true,
            "schema": {
              "$ref": "#/definitions/List"
            }
          }
        ],
        "responses": {
          "200": {
            "description": "successful operation"
          },
          "400": {
            "description": "Invalid list supplied"
          },
          "404": {
            "description": "List not found"
          }
        }
      },
      "get": {
        "tags": [
          "CRUD LIST"
        ],
        "summary": "list",
        "description": "",
        "produces": [
          "application/json",
          "application/xml"
        ],
        "parameters": [
          {
            "name": "id",
            "in": "query",
            "description": "5f47c8b0dbc303b00d551ebc",
            "required": false,
            "type": "string"
          }
        ],
        "responses": {
          "200": {
            "description": "successful operation"
          },
          "400": {
            "description": "Invalid list supplied"
          },
          "404": {
            "description": "List not found"
          }
        }
      },
      "patch": {
        "tags": [
          "CRUD LIST"
        ],
        "summary": "Updated list",
        "description": "Updated list",
        "operationId": "updateList",
        "consumes": [
          "application/json"
        ],
        "produces": [
          "application/json",
          "application/xml"
        ],
        "parameters": [
          {
            "in": "body",
            "name": "body",
            "description": "Updated list object",
            "required": true,
            "schema": {
              "$ref": "#/definitions/ListUpdate"
            }
          }
        ],
        "responses": {
          "200": {
            "description": "successful operation"
          },
          "400": {
            "description": "Invalid list supplied"
          },
          "404": {
            "description": "List not found"
          }
        }
      },
      "delete": {
        "tags": [
          "CRUD LIST"
        ],
        "summary": "Delete list",
        "description": "Delete list",
        "operationId": "deleteList",
        "produces": [
          "application/json",
          "application/xml"
        ],
        "parameters": [
          {
            "in": "body",
            "name": "body",
            "description": "Delete list object",
            "required": true,
            "schema": {
              "$ref": "#/definitions/Id"
            }
          }
        ],
        "responses": {
          "200": {
            "description": "successful operation"
          },
          "400": {
            "description": "Invalid list supplied"
          },
          "404": {
            "description": "List not found"
          }
        }
      }
    },
    "/webhook/set": {
      "post": {
        "tags": [
          "SET WEBHOOK"
        ],
        "summary": "SET WEBHOOK",
        "description": "SET WEBHOOK",
        "consumes": [
          "application/json"
        ],
        "produces": [
          "application/json",
          "application/xml"
        ],
        "parameters": [],
        "responses": {
          "200": {
            "description": "successful operation"
          }
        }
      }
    }
  },
  "securityDefinitions": {
    "api_key": {
      "type": "apiKey",
      "name": "api_key",
      "in": "header"
    },
    "petstore_auth": {
      "type": "oauth2",
      "authorizationUrl": "https://petstore.swagger.io/oauth/authorize",
      "flow": "implicit",
      "scopes": {
        "read:pets": "read your pets",
        "write:pets": "modify pets in your account"
      }
    }
  },
  "definitions": {
    "Todo": {
      "type": "object",
      "properties": {
        "date": {
          "type": "string",
          "example": "2020-07-31"
        },
        "listId": {
          "type": "string",
          "example": "5f481deed22e50445b323590"
        },
        "description": {
          "type": "string",
          "example": "description todo"
        }
      },
      "xml": {
        "name": "Todo"
      }
    },
    "TodoUpdate": {
      "type": "object",
      "properties": {
        "id": {
          "type": "string",
          "example": "5f47c8b0dbc303b00d551ebc"
        },
        "date": {
          "type": "string",
          "example": "2020-07-31"
        },
        "listId": {
          "type": "string",
          "example": "5f481deed22e50445b323590"
        },
        "description": {
          "type": "string",
          "example": "description todo"
        }
      },
      "xml": {
        "name": "TodoUpdate"
      }
    },
    "List": {
      "type": "object",
      "properties": {
        "listName": {
          "type": "string",
          "example": "list 1"
        }
      },
      "xml": {
        "name": "List"
      }
    },
    "ListUpdate": {
      "type": "object",
      "properties": {
        "id": {
          "type": "string",
          "example": "5f47c8b0dbc303b00d551ebc"
        },
        "listName": {
          "type": "string",
          "example": "list 1"
        }
      },
      "xml": {
        "name": "ListUpdate"
      }
    },
    "Id": {
      "type": "object",
      "properties": {
        "id": {
          "type": "string",
          "example": "5f47e1adfe05d2ce96b83802"
        }
      },
      "xml": {
        "name": "Id"
      }
    }
  },
  "externalDocs": {
    "description": "Find out more about Swagger",
    "url": "http://swagger.io"
  }
}
